-- Merging decision tree log ---
manifest
ADDED from C:\Users\pedro.candon\Documents\SF Android\smartfactory-android-bci\FacialExpression\app\src\main\AndroidManifest.xml:2:1-43:12
INJECTED from C:\Users\pedro.candon\Documents\SF Android\smartfactory-android-bci\FacialExpression\app\src\main\AndroidManifest.xml:2:1-43:12
INJECTED from C:\Users\pedro.candon\Documents\SF Android\smartfactory-android-bci\FacialExpression\app\src\main\AndroidManifest.xml:2:1-43:12
INJECTED from C:\Users\pedro.candon\Documents\SF Android\smartfactory-android-bci\FacialExpression\app\src\main\AndroidManifest.xml:2:1-43:12
MERGED from [com.android.support:support-v4:25.1.0] C:\Users\pedro.candon\.gradle\caches\transforms-1\files-1.1\support-v4-25.1.0.aar\6abaaca9d1158456225acbbc84d5c617\AndroidManifest.xml:17:1-27:12
MERGED from [com.emotiv.sdk:community:3.5.0] C:\Users\pedro.candon\.gradle\caches\transforms-1\files-1.1\community-3.5.0.aar\4e43bd9a1ef47461f34c6c6ee97db1c6\AndroidManifest.xml:2:1-17:12
MERGED from [com.android.support:support-fragment:25.1.0] C:\Users\pedro.candon\.gradle\caches\transforms-1\files-1.1\support-fragment-25.1.0.aar\941d901f5fb29917827224abb71f98d0\AndroidManifest.xml:17:1-27:12
MERGED from [com.android.support:support-media-compat:25.1.0] C:\Users\pedro.candon\.gradle\caches\transforms-1\files-1.1\support-media-compat-25.1.0.aar\b4510e58b79f009d3762f7a42950ee56\AndroidManifest.xml:17:1-27:12
MERGED from [com.android.support:support-core-utils:25.1.0] C:\Users\pedro.candon\.gradle\caches\transforms-1\files-1.1\support-core-utils-25.1.0.aar\c7b8e19ccb3902bd6c827477aaaa16ed\AndroidManifest.xml:17:1-27:12
MERGED from [com.android.support:support-core-ui:25.1.0] C:\Users\pedro.candon\.gradle\caches\transforms-1\files-1.1\support-core-ui-25.1.0.aar\6e0ecace084a72ba54f468dad260a938\AndroidManifest.xml:17:1-27:12
MERGED from [com.android.support:support-compat:25.1.0] C:\Users\pedro.candon\.gradle\caches\transforms-1\files-1.1\support-compat-25.1.0.aar\0d71ea64f5ab6e5719fd80420a4558e4\AndroidManifest.xml:17:1-27:12
INJECTED from C:\Users\pedro.candon\Documents\SF Android\smartfactory-android-bci\FacialExpression\app\src\main\AndroidManifest.xml:2:1-43:12
INJECTED from C:\Users\pedro.candon\Documents\SF Android\smartfactory-android-bci\FacialExpression\app\src\main\AndroidManifest.xml:2:1-43:12
INJECTED from C:\Users\pedro.candon\Documents\SF Android\smartfactory-android-bci\FacialExpression\app\src\main\AndroidManifest.xml:2:1-43:12
	package
		ADDED from C:\Users\pedro.candon\Documents\SF Android\smartfactory-android-bci\FacialExpression\app\src\main\AndroidManifest.xml:3:5-42
		INJECTED from C:\Users\pedro.candon\Documents\SF Android\smartfactory-android-bci\FacialExpression\app\src\main\AndroidManifest.xml
		INJECTED from C:\Users\pedro.candon\Documents\SF Android\smartfactory-android-bci\FacialExpression\app\src\main\AndroidManifest.xml
	android:versionName
		ADDED from C:\Users\pedro.candon\Documents\SF Android\smartfactory-android-bci\FacialExpression\app\src\main\AndroidManifest.xml:5:5-30
		INJECTED from C:\Users\pedro.candon\Documents\SF Android\smartfactory-android-bci\FacialExpression\app\src\main\AndroidManifest.xml
		INJECTED from C:\Users\pedro.candon\Documents\SF Android\smartfactory-android-bci\FacialExpression\app\src\main\AndroidManifest.xml
	xmlns:android
		ADDED from C:\Users\pedro.candon\Documents\SF Android\smartfactory-android-bci\FacialExpression\app\src\main\AndroidManifest.xml:2:11-69
	android:versionCode
		ADDED from C:\Users\pedro.candon\Documents\SF Android\smartfactory-android-bci\FacialExpression\app\src\main\AndroidManifest.xml:4:5-28
		INJECTED from C:\Users\pedro.candon\Documents\SF Android\smartfactory-android-bci\FacialExpression\app\src\main\AndroidManifest.xml
		INJECTED from C:\Users\pedro.candon\Documents\SF Android\smartfactory-android-bci\FacialExpression\app\src\main\AndroidManifest.xml
uses-sdk
ADDED from C:\Users\pedro.candon\Documents\SF Android\smartfactory-android-bci\FacialExpression\app\src\main\AndroidManifest.xml:9:5-11:41
INJECTED from C:\Users\pedro.candon\Documents\SF Android\smartfactory-android-bci\FacialExpression\app\src\main\AndroidManifest.xml:9:5-11:41
INJECTED from C:\Users\pedro.candon\Documents\SF Android\smartfactory-android-bci\FacialExpression\app\src\main\AndroidManifest.xml:9:5-11:41
MERGED from [com.android.support:support-v4:25.1.0] C:\Users\pedro.candon\.gradle\caches\transforms-1\files-1.1\support-v4-25.1.0.aar\6abaaca9d1158456225acbbc84d5c617\AndroidManifest.xml:21:5-23:54
MERGED from [com.android.support:support-v4:25.1.0] C:\Users\pedro.candon\.gradle\caches\transforms-1\files-1.1\support-v4-25.1.0.aar\6abaaca9d1158456225acbbc84d5c617\AndroidManifest.xml:21:5-23:54
MERGED from [com.emotiv.sdk:community:3.5.0] C:\Users\pedro.candon\.gradle\caches\transforms-1\files-1.1\community-3.5.0.aar\4e43bd9a1ef47461f34c6c6ee97db1c6\AndroidManifest.xml:7:5-9:41
MERGED from [com.emotiv.sdk:community:3.5.0] C:\Users\pedro.candon\.gradle\caches\transforms-1\files-1.1\community-3.5.0.aar\4e43bd9a1ef47461f34c6c6ee97db1c6\AndroidManifest.xml:7:5-9:41
MERGED from [com.android.support:support-fragment:25.1.0] C:\Users\pedro.candon\.gradle\caches\transforms-1\files-1.1\support-fragment-25.1.0.aar\941d901f5fb29917827224abb71f98d0\AndroidManifest.xml:21:5-23:60
MERGED from [com.android.support:support-fragment:25.1.0] C:\Users\pedro.candon\.gradle\caches\transforms-1\files-1.1\support-fragment-25.1.0.aar\941d901f5fb29917827224abb71f98d0\AndroidManifest.xml:21:5-23:60
MERGED from [com.android.support:support-media-compat:25.1.0] C:\Users\pedro.candon\.gradle\caches\transforms-1\files-1.1\support-media-compat-25.1.0.aar\b4510e58b79f009d3762f7a42950ee56\AndroidManifest.xml:21:5-23:63
MERGED from [com.android.support:support-media-compat:25.1.0] C:\Users\pedro.candon\.gradle\caches\transforms-1\files-1.1\support-media-compat-25.1.0.aar\b4510e58b79f009d3762f7a42950ee56\AndroidManifest.xml:21:5-23:63
MERGED from [com.android.support:support-core-utils:25.1.0] C:\Users\pedro.candon\.gradle\caches\transforms-1\files-1.1\support-core-utils-25.1.0.aar\c7b8e19ccb3902bd6c827477aaaa16ed\AndroidManifest.xml:21:5-23:61
MERGED from [com.android.support:support-core-utils:25.1.0] C:\Users\pedro.candon\.gradle\caches\transforms-1\files-1.1\support-core-utils-25.1.0.aar\c7b8e19ccb3902bd6c827477aaaa16ed\AndroidManifest.xml:21:5-23:61
MERGED from [com.android.support:support-core-ui:25.1.0] C:\Users\pedro.candon\.gradle\caches\transforms-1\files-1.1\support-core-ui-25.1.0.aar\6e0ecace084a72ba54f468dad260a938\AndroidManifest.xml:21:5-23:58
MERGED from [com.android.support:support-core-ui:25.1.0] C:\Users\pedro.candon\.gradle\caches\transforms-1\files-1.1\support-core-ui-25.1.0.aar\6e0ecace084a72ba54f468dad260a938\AndroidManifest.xml:21:5-23:58
MERGED from [com.android.support:support-compat:25.1.0] C:\Users\pedro.candon\.gradle\caches\transforms-1\files-1.1\support-compat-25.1.0.aar\0d71ea64f5ab6e5719fd80420a4558e4\AndroidManifest.xml:21:5-23:58
MERGED from [com.android.support:support-compat:25.1.0] C:\Users\pedro.candon\.gradle\caches\transforms-1\files-1.1\support-compat-25.1.0.aar\0d71ea64f5ab6e5719fd80420a4558e4\AndroidManifest.xml:21:5-23:58
INJECTED from C:\Users\pedro.candon\Documents\SF Android\smartfactory-android-bci\FacialExpression\app\src\main\AndroidManifest.xml:9:5-11:41
INJECTED from C:\Users\pedro.candon\Documents\SF Android\smartfactory-android-bci\FacialExpression\app\src\main\AndroidManifest.xml:9:5-11:41
	tools:overrideLibrary
		ADDED from [com.android.support:support-v4:25.1.0] C:\Users\pedro.candon\.gradle\caches\transforms-1\files-1.1\support-v4-25.1.0.aar\6abaaca9d1158456225acbbc84d5c617\AndroidManifest.xml:23:9-51
	android:targetSdkVersion
		ADDED from C:\Users\pedro.candon\Documents\SF Android\smartfactory-android-bci\FacialExpression\app\src\main\AndroidManifest.xml:11:9-38
		INJECTED from C:\Users\pedro.candon\Documents\SF Android\smartfactory-android-bci\FacialExpression\app\src\main\AndroidManifest.xml
		INJECTED from C:\Users\pedro.candon\Documents\SF Android\smartfactory-android-bci\FacialExpression\app\src\main\AndroidManifest.xml
	android:minSdkVersion
		ADDED from C:\Users\pedro.candon\Documents\SF Android\smartfactory-android-bci\FacialExpression\app\src\main\AndroidManifest.xml:10:9-35
		INJECTED from C:\Users\pedro.candon\Documents\SF Android\smartfactory-android-bci\FacialExpression\app\src\main\AndroidManifest.xml
		INJECTED from C:\Users\pedro.candon\Documents\SF Android\smartfactory-android-bci\FacialExpression\app\src\main\AndroidManifest.xml
uses-feature#android.hardware.bluetooth_le
ADDED from C:\Users\pedro.candon\Documents\SF Android\smartfactory-android-bci\FacialExpression\app\src\main\AndroidManifest.xml:13:5-15:35
	android:required
		ADDED from C:\Users\pedro.candon\Documents\SF Android\smartfactory-android-bci\FacialExpression\app\src\main\AndroidManifest.xml:15:9-32
	android:name
		ADDED from C:\Users\pedro.candon\Documents\SF Android\smartfactory-android-bci\FacialExpression\app\src\main\AndroidManifest.xml:14:9-53
uses-permission#android.permission.INTERNET
ADDED from C:\Users\pedro.candon\Documents\SF Android\smartfactory-android-bci\FacialExpression\app\src\main\AndroidManifest.xml:17:5-67
	android:name
		ADDED from C:\Users\pedro.candon\Documents\SF Android\smartfactory-android-bci\FacialExpression\app\src\main\AndroidManifest.xml:17:22-64
uses-permission#android.permission.ACCESS_NETWORK_STATE
ADDED from C:\Users\pedro.candon\Documents\SF Android\smartfactory-android-bci\FacialExpression\app\src\main\AndroidManifest.xml:18:5-79
	android:name
		ADDED from C:\Users\pedro.candon\Documents\SF Android\smartfactory-android-bci\FacialExpression\app\src\main\AndroidManifest.xml:18:22-76
uses-permission#android.permission.WRITE_EXTERNAL_STORAGE
ADDED from C:\Users\pedro.candon\Documents\SF Android\smartfactory-android-bci\FacialExpression\app\src\main\AndroidManifest.xml:19:5-80
	android:name
		ADDED from C:\Users\pedro.candon\Documents\SF Android\smartfactory-android-bci\FacialExpression\app\src\main\AndroidManifest.xml:19:22-78
uses-permission#android.permission.BLUETOOTH
ADDED from C:\Users\pedro.candon\Documents\SF Android\smartfactory-android-bci\FacialExpression\app\src\main\AndroidManifest.xml:20:5-68
	android:name
		ADDED from C:\Users\pedro.candon\Documents\SF Android\smartfactory-android-bci\FacialExpression\app\src\main\AndroidManifest.xml:20:22-65
uses-permission#android.permission.BLUETOOTH_ADMIN
ADDED from C:\Users\pedro.candon\Documents\SF Android\smartfactory-android-bci\FacialExpression\app\src\main\AndroidManifest.xml:21:5-74
	android:name
		ADDED from C:\Users\pedro.candon\Documents\SF Android\smartfactory-android-bci\FacialExpression\app\src\main\AndroidManifest.xml:21:22-71
uses-permission#android.permission.ACCESS_FINE_LOCATION
ADDED from C:\Users\pedro.candon\Documents\SF Android\smartfactory-android-bci\FacialExpression\app\src\main\AndroidManifest.xml:22:5-79
	android:name
		ADDED from C:\Users\pedro.candon\Documents\SF Android\smartfactory-android-bci\FacialExpression\app\src\main\AndroidManifest.xml:22:22-76
application
ADDED from C:\Users\pedro.candon\Documents\SF Android\smartfactory-android-bci\FacialExpression\app\src\main\AndroidManifest.xml:24:5-41:19
MERGED from [com.android.support:support-v4:25.1.0] C:\Users\pedro.candon\.gradle\caches\transforms-1\files-1.1\support-v4-25.1.0.aar\6abaaca9d1158456225acbbc84d5c617\AndroidManifest.xml:25:5-20
MERGED from [com.android.support:support-v4:25.1.0] C:\Users\pedro.candon\.gradle\caches\transforms-1\files-1.1\support-v4-25.1.0.aar\6abaaca9d1158456225acbbc84d5c617\AndroidManifest.xml:25:5-20
MERGED from [com.emotiv.sdk:community:3.5.0] C:\Users\pedro.candon\.gradle\caches\transforms-1\files-1.1\community-3.5.0.aar\4e43bd9a1ef47461f34c6c6ee97db1c6\AndroidManifest.xml:11:5-15:19
MERGED from [com.emotiv.sdk:community:3.5.0] C:\Users\pedro.candon\.gradle\caches\transforms-1\files-1.1\community-3.5.0.aar\4e43bd9a1ef47461f34c6c6ee97db1c6\AndroidManifest.xml:11:5-15:19
MERGED from [com.android.support:support-fragment:25.1.0] C:\Users\pedro.candon\.gradle\caches\transforms-1\files-1.1\support-fragment-25.1.0.aar\941d901f5fb29917827224abb71f98d0\AndroidManifest.xml:25:5-20
MERGED from [com.android.support:support-fragment:25.1.0] C:\Users\pedro.candon\.gradle\caches\transforms-1\files-1.1\support-fragment-25.1.0.aar\941d901f5fb29917827224abb71f98d0\AndroidManifest.xml:25:5-20
MERGED from [com.android.support:support-media-compat:25.1.0] C:\Users\pedro.candon\.gradle\caches\transforms-1\files-1.1\support-media-compat-25.1.0.aar\b4510e58b79f009d3762f7a42950ee56\AndroidManifest.xml:25:5-20
MERGED from [com.android.support:support-media-compat:25.1.0] C:\Users\pedro.candon\.gradle\caches\transforms-1\files-1.1\support-media-compat-25.1.0.aar\b4510e58b79f009d3762f7a42950ee56\AndroidManifest.xml:25:5-20
MERGED from [com.android.support:support-core-utils:25.1.0] C:\Users\pedro.candon\.gradle\caches\transforms-1\files-1.1\support-core-utils-25.1.0.aar\c7b8e19ccb3902bd6c827477aaaa16ed\AndroidManifest.xml:25:5-20
MERGED from [com.android.support:support-core-utils:25.1.0] C:\Users\pedro.candon\.gradle\caches\transforms-1\files-1.1\support-core-utils-25.1.0.aar\c7b8e19ccb3902bd6c827477aaaa16ed\AndroidManifest.xml:25:5-20
MERGED from [com.android.support:support-core-ui:25.1.0] C:\Users\pedro.candon\.gradle\caches\transforms-1\files-1.1\support-core-ui-25.1.0.aar\6e0ecace084a72ba54f468dad260a938\AndroidManifest.xml:25:5-20
MERGED from [com.android.support:support-core-ui:25.1.0] C:\Users\pedro.candon\.gradle\caches\transforms-1\files-1.1\support-core-ui-25.1.0.aar\6e0ecace084a72ba54f468dad260a938\AndroidManifest.xml:25:5-20
MERGED from [com.android.support:support-compat:25.1.0] C:\Users\pedro.candon\.gradle\caches\transforms-1\files-1.1\support-compat-25.1.0.aar\0d71ea64f5ab6e5719fd80420a4558e4\AndroidManifest.xml:25:5-20
MERGED from [com.android.support:support-compat:25.1.0] C:\Users\pedro.candon\.gradle\caches\transforms-1\files-1.1\support-compat-25.1.0.aar\0d71ea64f5ab6e5719fd80420a4558e4\AndroidManifest.xml:25:5-20
	android:supportsRtl
		ADDED from [com.emotiv.sdk:community:3.5.0] C:\Users\pedro.candon\.gradle\caches\transforms-1\files-1.1\community-3.5.0.aar\4e43bd9a1ef47461f34c6c6ee97db1c6\AndroidManifest.xml:14:9-35
	android:label
		ADDED from C:\Users\pedro.candon\Documents\SF Android\smartfactory-android-bci\FacialExpression\app\src\main\AndroidManifest.xml:27:9-41
	android:icon
		ADDED from C:\Users\pedro.candon\Documents\SF Android\smartfactory-android-bci\FacialExpression\app\src\main\AndroidManifest.xml:26:9-45
	android:allowBackup
		ADDED from C:\Users\pedro.candon\Documents\SF Android\smartfactory-android-bci\FacialExpression\app\src\main\AndroidManifest.xml:25:9-35
	android:theme
		ADDED from C:\Users\pedro.candon\Documents\SF Android\smartfactory-android-bci\FacialExpression\app\src\main\AndroidManifest.xml:28:9-62
activity#com.emotiv.facialexpression.MainActivity
ADDED from C:\Users\pedro.candon\Documents\SF Android\smartfactory-android-bci\FacialExpression\app\src\main\AndroidManifest.xml:29:9-38:20
	android:screenOrientation
		ADDED from C:\Users\pedro.candon\Documents\SF Android\smartfactory-android-bci\FacialExpression\app\src\main\AndroidManifest.xml:32:13-49
	android:label
		ADDED from C:\Users\pedro.candon\Documents\SF Android\smartfactory-android-bci\FacialExpression\app\src\main\AndroidManifest.xml:31:13-45
	android:name
		ADDED from C:\Users\pedro.candon\Documents\SF Android\smartfactory-android-bci\FacialExpression\app\src\main\AndroidManifest.xml:30:13-68
intent-filter#action:name:android.intent.action.MAIN+category:name:android.intent.category.LAUNCHER
ADDED from C:\Users\pedro.candon\Documents\SF Android\smartfactory-android-bci\FacialExpression\app\src\main\AndroidManifest.xml:33:13-37:29
action#android.intent.action.MAIN
ADDED from C:\Users\pedro.candon\Documents\SF Android\smartfactory-android-bci\FacialExpression\app\src\main\AndroidManifest.xml:34:17-69
	android:name
		ADDED from C:\Users\pedro.candon\Documents\SF Android\smartfactory-android-bci\FacialExpression\app\src\main\AndroidManifest.xml:34:25-66
category#android.intent.category.LAUNCHER
ADDED from C:\Users\pedro.candon\Documents\SF Android\smartfactory-android-bci\FacialExpression\app\src\main\AndroidManifest.xml:36:17-77
	android:name
		ADDED from C:\Users\pedro.candon\Documents\SF Android\smartfactory-android-bci\FacialExpression\app\src\main\AndroidManifest.xml:36:27-74
activity#com.emotiv.facialexpression.ContentActivity
ADDED from C:\Users\pedro.candon\Documents\SF Android\smartfactory-android-bci\FacialExpression\app\src\main\AndroidManifest.xml:39:9-40:62
	android:screenOrientation
		ADDED from C:\Users\pedro.candon\Documents\SF Android\smartfactory-android-bci\FacialExpression\app\src\main\AndroidManifest.xml:40:13-49
	android:name
		ADDED from C:\Users\pedro.candon\Documents\SF Android\smartfactory-android-bci\FacialExpression\app\src\main\AndroidManifest.xml:39:19-77
